<?xml version="1.0" standalone="no"?>
<!DOCTYPE svg PUBLIC "-//W3C//DTD SVG 20010904//EN"
 "http://www.w3.org/TR/2001/REC-SVG-20010904/DTD/svg10.dtd">
<svg version="1.0" xmlns="http://www.w3.org/2000/svg"
 width="1200.000000pt" height="1200.000000pt" viewBox="0 0 1200.000000 1200.000000"
 preserveAspectRatio="xMidYMid meet">
<metadata>
Created by potrace 1.11, written by Peter Selinger 2001-2013
</metadata>
<g transform="translate(0.000000,1200.000000) scale(0.100000,-0.100000)"
fill="#000000" stroke="none">
<path d="M1771 5999 l0 -5271 57 6 c31 3 73 8 92 10 19 3 62 7 95 11 103 11
185 24 365 59 14 3 43 10 65 16 22 6 47 12 55 15 234 62 525 188 755 328 259
158 564 417 756 642 19 21 41 47 49 55 69 74 206 260 312 421 228 348 427 752
587 1194 l22 60 359 0 c313 0 360 2 361 15 1 20 1 482 0 497 -1 9 -71 12 -272
12 -149 0 -273 2 -275 3 -2 2 17 83 42 179 25 95 48 184 50 197 3 13 22 103
44 200 21 97 41 193 44 213 3 20 8 42 10 50 3 8 7 30 10 49 3 19 8 46 11 60 3
14 14 79 25 145 11 66 22 131 24 145 3 14 7 43 11 65 3 22 8 54 11 70 l5 30
202 1 c218 1 524 11 535 18 4 2 45 7 92 10 47 3 94 8 105 10 11 2 40 7 65 11
308 47 593 150 802 288 234 156 422 410 545 735 34 91 85 270 97 342 3 19 8
46 10 60 7 35 27 184 33 245 14 136 6 624 -11 677 -3 7 -7 33 -10 57 -11 86
-59 264 -97 363 -79 202 -177 354 -320 497 -192 192 -461 338 -797 432 -90 26
-152 40 -326 75 -10 2 -44 6 -75 10 -31 3 -63 8 -71 9 -18 3 -130 16 -180 20
-165 15 -444 19 -1180 20 l-855 0 -2 -1925 c-1 -1059 1 -1932 3 -1940 3 -13
62 -15 454 -15 247 0 450 0 450 -1 0 -1 -4 -23 -9 -50 -5 -27 -12 -68 -16 -92
-7 -48 -31 -184 -40 -222 -3 -14 -7 -36 -10 -50 -2 -14 -9 -50 -15 -80 -6 -30
-14 -66 -16 -80 -37 -189 -200 -809 -217 -826 -3 -3 -141 -6 -306 -5 l-301 0
-1 -27 c-4 -143 0 -484 5 -490 4 -4 100 -7 214 -8 114 -1 208 -2 209 -3 5 -4
-158 -372 -220 -496 -361 -724 -813 -1229 -1357 -1514 -159 -83 -303 -138
-520 -197 -14 -3 -15 497 -15 4707 l0 4710 1875 -4 c1031 -2 1909 -6 1950 -10
41 -4 113 -9 160 -12 47 -3 105 -8 130 -10 25 -3 72 -7 105 -10 33 -3 76 -7
95 -10 19 -3 55 -7 80 -10 41 -5 86 -11 150 -20 186 -27 372 -63 560 -109 8
-2 29 -7 45 -11 161 -38 426 -128 610 -208 695 -300 1152 -778 1414 -1477 53
-142 129 -408 147 -515 2 -16 9 -56 15 -87 5 -32 12 -68 14 -80 3 -20 19 -133
30 -223 32 -256 38 -836 10 -1060 -2 -16 -6 -55 -9 -85 -12 -111 -28 -220 -57
-370 -28 -146 -122 -470 -164 -565 -7 -16 -28 -64 -45 -105 -79 -184 -218
-412 -348 -570 -58 -70 -231 -243 -302 -302 -265 -220 -627 -411 -1026 -541
-184 -60 -428 -124 -578 -151 -16 -3 -52 -10 -80 -15 -28 -6 -67 -12 -86 -15
-19 -3 -79 -12 -134 -21 -54 -9 -115 -18 -135 -20 -20 -2 -58 -6 -86 -9 -89
-10 -149 -16 -185 -21 -19 -2 -41 -4 -48 -4 -10 -1 -12 -17 -7 -74 3 -39 8
-101 11 -137 2 -36 6 -83 9 -105 2 -22 7 -77 11 -123 l7 -83 71 6 c39 4 78 8
86 10 8 2 49 6 90 9 41 4 86 9 100 11 14 2 45 7 70 10 25 3 52 8 60 10 8 2 40
7 70 10 30 4 87 13 125 20 39 8 86 17 105 20 252 41 695 168 975 281 205 82
477 223 640 332 55 37 178 124 191 137 7 5 52 43 100 82 330 269 624 678 807
1123 35 85 113 303 122 344 3 11 14 55 26 96 25 92 85 377 94 445 6 53 12 94
20 135 2 14 7 61 11 105 3 44 8 88 9 97 24 124 24 912 0 1039 -2 9 -6 52 -10
95 -3 43 -8 86 -10 94 -3 8 -7 42 -11 74 -3 33 -8 69 -10 80 -2 12 -13 73 -25
136 -86 478 -268 949 -507 1315 -48 74 -172 239 -217 290 -112 127 -152 169
-240 249 -121 109 -159 141 -280 228 -261 188 -591 353 -965 481 -93 32 -300
94 -340 102 -8 2 -51 12 -95 23 -172 44 -502 105 -690 127 -27 3 -59 8 -70 10
-11 2 -49 7 -85 10 -36 3 -83 8 -105 10 -84 9 -153 15 -240 21 -49 3 -108 8
-130 11 -22 3 -1022 7 -2222 10 l-2181 4 -1 -5272z m4069 2827 c129 -7 211
-14 255 -21 17 -2 53 -7 80 -10 47 -6 66 -9 125 -20 14 -3 39 -8 55 -11 131
-23 299 -73 415 -122 82 -35 190 -91 180 -93 -3 0 -54 -2 -115 -4 -109 -3
-135 -6 -250 -26 -205 -36 -417 -125 -600 -250 -483 -331 -789 -890 -929
-1699 -13 -74 -27 -164 -32 -200 -4 -36 -8 -67 -9 -70 -1 -3 -5 -41 -10 -85
-4 -44 -9 -87 -11 -95 -1 -8 -3 -33 -3 -55 -2 -70 4 -68 -231 -69 -117 -1
-217 2 -223 6 -9 5 -12 361 -13 1405 -1 769 0 1405 2 1413 3 14 74 15 601 14
329 -1 650 -4 713 -8z m1215 -811 c65 -11 195 -45 213 -55 9 -5 38 -18 63 -28
39 -17 47 -25 53 -53 3 -19 8 -45 11 -58 20 -102 26 -399 12 -573 -31 -391
-159 -724 -351 -912 -34 -34 -70 -67 -81 -73 -11 -7 -37 -24 -58 -38 -21 -14
-40 -25 -42 -25 -2 0 -36 -15 -77 -34 -109 -50 -304 -106 -425 -121 -26 -4
-55 -8 -63 -10 -13 -4 -74 -11 -165 -21 -102 -11 -493 -20 -614 -15 -23 1 -23
3 -17 69 4 37 8 78 10 92 3 14 7 52 10 85 7 63 7 67 25 180 56 370 170 716
320 973 95 163 249 338 368 418 32 21 60 42 63 46 12 15 219 106 280 123 141
38 344 52 465 30z"/>
</g>
</svg>
